(kicad_pcb (version 20211014) (generator pcbnew)

  (general
    (thickness 1.6)
  )

  (paper "A4")
  (layers
    (0 "F.Cu" signal)
    (31 "B.Cu" signal)
    (32 "B.Adhes" user "B.Adhesive")
    (33 "F.Adhes" user "F.Adhesive")
    (34 "B.Paste" user)
    (35 "F.Paste" user)
    (36 "B.SilkS" user "B.Silkscreen")
    (37 "F.SilkS" user "F.Silkscreen")
    (38 "B.Mask" user)
    (39 "F.Mask" user)
    (40 "Dwgs.User" user "User.Drawings")
    (41 "Cmts.User" user "User.Comments")
    (42 "Eco1.User" user "User.Eco1")
    (43 "Eco2.User" user "User.Eco2")
    (44 "Edge.Cuts" user)
    (45 "Margin" user)
    (46 "B.CrtYd" user "B.Courtyard")
    (47 "F.CrtYd" user "F.Courtyard")
    (48 "B.Fab" user)
    (49 "F.Fab" user)
    (50 "User.1" user)
    (51 "User.2" user)
    (52 "User.3" user)
    (53 "User.4" user)
    (54 "User.5" user)
    (55 "User.6" user)
    (56 "User.7" user)
    (57 "User.8" user)
    (58 "User.9" user)
  )

  (setup
    (pad_to_mask_clearance 0)
    (pcbplotparams
      (layerselection 0x00010fc_ffffffff)
      (disableapertmacros false)
      (usegerberextensions false)
      (usegerberattributes true)
      (usegerberadvancedattributes true)
      (creategerberjobfile true)
      (svguseinch false)
      (svgprecision 6)
      (excludeedgelayer true)
      (plotframeref false)
      (viasonmask false)
      (mode 1)
      (useauxorigin false)
      (hpglpennumber 1)
      (hpglpenspeed 20)
      (hpglpendiameter 15.000000)
      (dxfpolygonmode true)
      (dxfimperialunits true)
      (dxfusepcbnewfont true)
      (psnegative false)
      (psa4output false)
      (plotreference true)
      (plotvalue true)
      (plotinvisibletext false)
      (sketchpadsonfab false)
      (subtractmaskfromsilk false)
      (outputformat 1)
      (mirror false)
      (drillshape 1)
      (scaleselection 1)
      (outputdirectory "")
    )
  )

  (net 0 "")

  (footprint "BL_Connector:GCT_USB4085-GF-A_REVA" (layer "F.Cu")
    (tedit 5F1E156D) (tstamp 8d14e609-ecde-4de8-9963-5f1ace4ff4c2)
    (at 135.5344 98.4504)
    (attr through_hole)
    (fp_text reference "REF**" (at -1.097425 -6.515415) (layer "F.SilkS")
      (effects (font (size 1.00015 1.00015) (thickness 0.015)))
      (tstamp 030c8305-9dfb-41e9-8ca6-c6fe2ee4d813)
    )
    (fp_text value "GCT_USB4085-GF-A_REVA" (at 9.18404 5.83792) (layer "F.Fab")
      (effects (font (size 1.001543 1.001543) (thickness 0.015)))
      (tstamp 8ea7c974-bd4e-4128-9655-48a7d9791375)
    )
    (fp_text user ">PCB~{Edge}" (at 5.70338 2.07623) (layer "Dwgs.User")
      (effects (font (size 0.800472 0.800472) (thickness 0.015)))
      (tstamp c5e9c0c8-9d22-49e7-8f14-c8af8f2d914c)
    )
    (fp_line (start 4.475 2.075) (end 4.475 1.725) (layer "F.SilkS") (width 0.2) (tstamp 74352c8d-c3a0-4297-bdc7-c8a653975427))
    (fp_line (start -4.475 -4.585) (end 4.475 -4.585) (layer "F.SilkS") (width 0.2) (tstamp 9b840cbe-77e4-4b78-ac46-fdc7d5ef8902))
    (fp_line (start -4.475 2.075) (end 4.475 2.075) (layer "F.SilkS") (width 0.2) (tstamp cde37a39-f15e-4ad1-a32a-6193784bcd5a))
    (fp_line (start -4.475 1.725) (end -4.475 2.075) (layer "F.SilkS") (width 0.2) (tstamp f4957237-a7c2-4e1e-ad01-0bf63aaeb473))
    (fp_line (start -5.1 4.825) (end -5.1 -4.825) (layer "F.CrtYd") (width 0.05) (tstamp 52f3c63a-33fb-4a7c-9d4e-6e14c9857466))
    (fp_line (start 5.15 -4.825) (end 5.15 4.825) (layer "F.CrtYd") (width 0.05) (tstamp 9864b877-2380-41ad-9ab0-f8fc88facb17))
    (fp_line (start -5.1 -4.825) (end 5.15 -4.825) (layer "F.CrtYd") (width 0.05) (tstamp cd0f4ebc-2263-4b6f-9d1d-945bc55e1ca3))
    (fp_line (start 5.15 4.825) (end -5.1 4.825) (layer "F.CrtYd") (width 0.05) (tstamp d7d11d6d-ae22-4a72-bb53-dbb44c673afb))
    (fp_line (start 4.475 -4.585) (end 4.475 4.585) (layer "F.Fab") (width 0.1) (tstamp 2083aa7c-762f-4cda-bf15-cee9862cec67))
    (fp_line (start -4.475 4.585) (end -4.475 -4.585) (layer "F.Fab") (width 0.1) (tstamp 363789a4-3f5e-46a3-85ca-4197fda3b74c))
    (fp_line (start -5.3 2.075) (end 5.9 2.075) (layer "F.Fab") (width 0.127) (tstamp 5816c565-f345-4a7a-8396-14b2982819c2))
    (fp_line (start 4.475 4.585) (end -4.475 4.585) (layer "F.Fab") (width 0.1) (tstamp db2b5492-e5a0-43f5-8f75-f5b7f87a82ec))
    (fp_line (start -4.475 -4.585) (end 4.475 -4.585) (layer "F.Fab") (width 0.1) (tstamp fbe547e5-17a3-45e3-94cb-f367bcacb625))
    (pad "A1" thru_hole circle locked (at -2.975 -4.025) (size 0.65 0.65) (drill 0.4) (layers *.Cu *.Mask) (tstamp 2bb37a63-8fb3-442a-b194-a40698e8937b))
    (pad "A4" thru_hole circle locked (at -2.125 -4.025) (size 0.65 0.65) (drill 0.4) (layers *.Cu *.Mask) (tstamp 04187949-3027-41ab-9f09-f0e580c4b1d8))
    (pad "A5" thru_hole circle locked (at -1.275 -4.025) (size 0.65 0.65) (drill 0.4) (layers *.Cu *.Mask) (tstamp 370fa099-a488-4833-9be8-7f0ee0dc2301))
    (pad "A6" thru_hole circle locked (at -0.425 -4.025) (size 0.65 0.65) (drill 0.4) (layers *.Cu *.Mask) (tstamp cf65f3b2-97a2-413d-ab7c-542361ca5ea9))
    (pad "A7" thru_hole circle locked (at 0.425 -4.025) (size 0.65 0.65) (drill 0.4) (layers *.Cu *.Mask) (tstamp 698788a3-ab92-4b7e-98e6-fab2a06de505))
    (pad "A8" thru_hole circle locked (at 1.275 -4.025) (size 0.65 0.65) (drill 0.4) (layers *.Cu *.Mask) (tstamp d5b2f7cb-f079-46d5-a4cd-9ea5f1d9e602))
    (pad "A9" thru_hole circle locked (at 2.125 -4.025) (size 0.65 0.65) (drill 0.4) (layers *.Cu *.Mask) (tstamp af047df2-64d9-4941-aac1-dbe0147cb1ee))
    (pad "A12" thru_hole circle locked (at 2.975 -4.025) (size 0.65 0.65) (drill 0.4) (layers *.Cu *.Mask) (tstamp c80b34bd-ac99-4df4-8dfc-5b660dd2779e))
    (pad "B1" thru_hole circle locked (at 2.975 -2.675) (size 0.65 0.65) (drill 0.4) (layers *.Cu *.Mask) (tstamp d39fdf60-bb78-4999-9f84-c3511c2052ab))
    (pad "B4" thru_hole circle locked (at 2.125 -2.675) (size 0.65 0.65) (drill 0.4) (layers *.Cu *.Mask) (tstamp 30e0db34-422d-4410-ae76-7bc1ae0374ae))
    (pad "B5" thru_hole circle locked (at 1.275 -2.675) (size 0.65 0.65) (drill 0.4) (layers *.Cu *.Mask) (tstamp afd0ccf3-aa21-4dc1-9153-ff6b5c3524c4))
    (pad "B6" thru_hole circle locked (at 0.425 -2.675) (size 0.65 0.65) (drill 0.4) (layers *.Cu *.Mask) (tstamp 4e1bc4e0-96b4-4b86-9a40-e01f8acc8fb3))
    (pad "B7" thru_hole circle locked (at -0.425 -2.675) (size 0.65 0.65) (drill 0.4) (layers *.Cu *.Mask) (tstamp 518daebd-b89b-4c24-8d98-f647f9819f5f))
    (pad "B8" thru_hole circle locked (at -1.275 -2.675) (size 0.65 0.65) (drill 0.4) (layers *.Cu *.Mask) (tstamp 6e90455f-743f-4212-9228-03fca5a01a32))
    (pad "B9" thru_hole circle locked (at -2.125 -2.675) (size 0.65 0.65) (drill 0.4) (layers *.Cu *.Mask) (tstamp d08843b9-8d80-4cce-a479-77fce9daf120))
    (pad "B12" thru_hole circle locked (at -2.975 -2.675) (size 0.65 0.65) (drill 0.4) (layers *.Cu *.Mask) (tstamp 7bc3289d-4fc2-4507-9e9f-c73a1995ec06))
    (pad "P1" thru_hole oval locked (at -4.325 -3.045) (size 1.108 2.216) (drill oval 0.6 2.1) (layers *.Cu *.Mask) (tstamp 375e793b-0d69-403b-ae3c-3d5caaf1f7a0))
    (pad "P2" thru_hole oval locked (at 4.325 -3.045) (size 1.108 2.216) (drill oval 0.6 2.1) (layers *.Cu *.Mask) (tstamp 191b9116-9658-42f4-84a2-6f2bd7611a46))
    (pad "P3" thru_hole oval locked (at 4.325 0.335) (size 1.108 2.216) (drill oval 0.6 1.4) (layers *.Cu *.Mask) (tstamp c19428c6-11da-4ace-a0e8-49746d4e161f))
    (pad "P4" thru_hole oval locked (at -4.325 0.335) (size 1.108 2.216) (drill oval 0.6 1.4) (layers *.Cu *.Mask) (tstamp edd79b6f-3cb9-4618-83e7-5404a9cab624))
    (model "${KIPRJMOD}/ACJS-MHOM.step"
      (offset (xyz 0 0 8.5))
      (scale (xyz 1 1 1))
      (rotate (xyz -90 0 0))
    )
  )

)
